Cleaning and visualizing Five-year cancer survival statistics with ggplot2 and animation | SERDAR KORUR
…
You can access the data on my Github repository at https://github.com/korur/healthcareinformatics.

Setting up and loading in data

library(readxl)
library(tidyverse) # ggplot2, dplyr, tidyr, readr, 
                   # purrr, tibble, stringr, forcat
library(ggdark)
library(animation)
library(waffle)

cancer <- read_excel("posts_data/cancersurvivalstatistics.xls", sheet = 3)
cancer

## # A tibble: 42 x 13
##    Info  `1975-1977...2` `2006-2012...3` `Absolute (%)..~ `Proportional (~
##    <chr> <chr>           <chr>           <chr>            <chr>           
##  1 All ~ 50.29999999999~ 66.40000000000~ 16               31.899999999999~
##  2 (cas~ (50.1, 50.6)    (66.2, 66.5)    (15.7, 16.3)     (31.1, 32.6)    
##  3 Oral~ 52.5            67              14.4             27.399999999999~
##  4 <NA>  (51.1, 54.0)    (66.1, 67.9)    (12.7, 16.1)     (23.5, 31.4)    
##  5 Esop~ 5               20.5            15.5             308.10000000000~
##  6 <NA>  (4.0, 6.2)      (19.4, 21.7)    (13.9, 17.1)     (217.6, 398.6)  
##  7 Stom~ 15.19999999999~ 31.10000000000~ 15.9             104.7           
##  8 <NA>  (14.1, 16.3)    (30.1, 32.2)    (14.4, 17.4)     (88.2, 121.1)   
##  9 Colo~ 49.79999999999~ 66.20000000000~ 16.399999999999~ 32.899999999999~
## 10 <NA>  (49.1, 50.6)    (65.7, 66.7)    (15.5, 17.3)     (30.7, 35.1)    
## # ... with 32 more rows, and 8 more variables: `1975-1977...6` <chr>,
## #   `2006-2012...7` <chr>, `Absolute (%)...8` <chr>, `Proportional
## #   (%)...9` <chr>, `1975-1977...10` <chr>, `2006-2012...11` <chr>,
## #   `Absolute (%)...12` <chr>, `Proportional (%)...13` <chr>
…
Visualize Cancer statistics with waffle plots

Now, to make the waffle plot I need my data in the tidy format. I will use gather function to bring together the year variables. Plot p1 will be for years 1975-77 and p2 is for the years 2006-12.

waffle_77 <- cancer %>% mutate(Y1977 = round(Y1977, 0), Y2012=round(Y2012,0)) 
waffle_77 <- waffle_77 %>% mutate(Yes = Y1977)
waffle_77 <- waffle_77 %>% mutate(No = 100-Yes)
waffle_77 <- waffle_77[ ,c(1,6,7)]
# Gather the values 
waffle_tall <- waffle_77 %>% gather(survived, n, -type)
waffle_tall

## # A tibble: 42 x 3
##    type                    survived     n
##    <chr>                   <chr>    <dbl>
##  1 All Cancers             Yes         50
##  2 Oral Cavity and Pharynx Yes         52
##  3 Esophagus               Yes          5
##  4 Stomach                 Yes         15
##  5 Colon and Rectum        Yes         50
##  6 Liver                   Yes          3
##  7 Pancreas                Yes          2
##  8 Lung and Bronchus       Yes         12
##  9 Melanoma of the Skin    Yes         82
## 10 Urinary Bladder         Yes         72
## # ... with 32 more rows
…
waffle_12 <- cancer %>% mutate(Y2012 = round(Y2012, 0), Yes=round(Y2012,0)) 
waffle_12 <- waffle_12 %>% mutate(Yes =Y2012)
waffle_12 <- waffle_12 %>% mutate(No = 100-Y2012)
waffle_12 <- waffle_12[ ,c(1,6,7)]

# Gather the values 
waffle_tall_12 <- waffle_12 %>% gather(survived, n, -type)
waffle_tall_12

## # A tibble: 42 x 3
##    type                    survived     n
##    <chr>                   <chr>    <dbl>
##  1 All Cancers             Yes         66
##  2 Oral Cavity and Pharynx Yes         67
##  3 Esophagus               Yes         20
##  4 Stomach                 Yes         31
##  5 Colon and Rectum        Yes         66
##  6 Liver                   Yes         18
##  7 Pancreas                Yes          8
##  8 Lung and Bronchus       Yes         19
##  9 Melanoma of the Skin    Yes         93
## 10 Urinary Bladder         Yes         78
## # ... with 32 more rows
…
