…
horror_date <- horror_date %>% filter(day < 32) 

# I am excluding Day 1 from the analysis (Most aggreements starts at 1st)

horror_date_table <- horror_date %>% filter(day > 1)

# Let's check what is the most common day in the month for a horror movie release
horror_date_table <-  horror_date_table %>%
  group_by(day) %>% 
  count() %>% 
  arrange(desc(n))
horror_date_table

## # A tibble: 30 x 2
## # Groups:   day [30]
##      day     n
##    <dbl> <int>
##  1    13   124
##  2    18   119
##  3    25   119
##  4    21   110
##  5    31   107
##  6    28   102
##  7    10   100
##  8    20   100
##  9     5    99
## 10     7    98
## # ... with 20 more rows
…
