…
big_sw

## # A tibble: 4,120 x 10
##    fuelType  year make  model   VClass         hlv   hpv   lv4   pv4 displ
##    <chr>    <dbl> <chr> <chr>   <chr>        <dbl> <dbl> <dbl> <dbl> <dbl>
##  1 Premium   1993 Audi  100     Midsize Cars     0     0    17    96   2.8
##  2 Premium   1993 Audi  100     Midsize Cars     0     0    17    96   2.8
##  3 Premium   1993 BMW   740i    Midsize Cars     0     0    13   101   4  
##  4 Premium   1993 BMW   740il   Midsize Cars     0     0    13   105   4  
##  5 Regular   1993 BMW   750il   Midsize Cars     0     0    13   105   5  
##  6 Regular   1993 Buick Century Midsize Cars     0     0    16    97   2.2
##  7 Regular   1993 Buick Century Midsize Cars     0     0    16    97   3.3
##  8 Regular   1993 Buick Century Midsize Cars     0     0    16    97   3.3
##  9 Regular   1993 Buick Regal   Midsize Cars     0     0    16   100   3.1
## 10 Regular   1993 Buick Regal   Midsize Cars     0     0    16   100   3.1
## # ... with 4,110 more rows
…
