An accidental side effect of text mining | SERDAR KORUR
…
He also added here some additional words which frequently appear in kindle highlights output.

dplyr() package functions are very useful for grouping and counting the words from the lists that are created.

top_kindle_highlights <- df %>% 
 group_by(word) %>% 
 count() %>% 
 arrange(desc(n))

He noted down his first insight. 10 most frequent words from my kindle highlights.

top_kindle_highlights

## # A tibble: 12,433 x 2
## # Groups:   word [12,433]
##    word       n
##    <chr>  <int>
##  1 people   592
##  2 story    340
##  3 life     318
##  4 time     309
##  5 mind     213
##  6 change   212
##  7 feel     211
##  8 world    171
##  9 person   170
## 10 habits   157
## # ... with 12,423 more rows
…
# Find out the top words in each book and capture them in a list (top)

top[[i]] <- books[[i]] %>% 
              group_by(word) %>% 
              count() %>% 
              arrange(desc(n))
}
for(i in 1:28){
  print(book_names[[i]])
  print(top[[i]])
}

## [1] "Thinking, Fast and Slow"
## # A tibble: 1,619 x 2
## # Groups:   word [1,619]
##    word          n
##    <chr>     <int>
##  1 people       33
##  2 system       26
##  3 1            18
##  4 mind         18
##  5 effect       17
##  6 bad          15
##  7 cognitive    15
##  8 ease         15
##  9 theory       13
## 10 decision     12
## # ... with 1,609 more rows
## [1] "Influence: The Psychology of Persuasion (Collins Business Essentials)"
## # A tibble: 278 x 2
## # Groups:   word [278]
##    word            n
##    <chr>       <int>
##  1 142             5
##  2 146             5
##  3 131             3
##  4 147             3
##  5 154             3
##  6 179             3
##  7 association     3
##  8 food            3
##  9 information     3
## 10 people          3
## # ... with 268 more rows
## [1] "On Writing Well, 30th Anniversary Edition: An Informal Guide to Writing Nonfiction"
## # A tibble: 770 x 2
## # Groups:   word [770]
##    word         n
##    <chr>    <int>
##  1 writing     26
##  2 write       18
##  3 sentence    15
##  4 writer      15
##  5 reader      13
##  6 people      10
##  7 words        9
##  8 person       8
##  9 writers      8
## 10 day          7
## # ... with 760 more rows
## [1] "Wired for Story: The Writer's Guide to Using Brain Science to Hook Readers from the Very First Sentence"
## # A tibble: 1,657 x 2
## # Groups:   word [1,657]
##    word              n
##    <chr>         <int>
##  1 story           104
##  2 goal             41
##  3 protagonist      40
##  4 life             27
##  5 protagonist's    23
##  6 internal         21
##  7 brain            20
##  8 reader           20
##  9 external         19
## 10 world            19
## # ... with 1,647 more rows
## [1] "Bird by Bird: Some Instructions on Writing and Life"
## # A tibble: 522 x 2
## # Groups:   word [522]
##    word          n
##    <chr>     <int>
##  1 writing      17
##  2 mind          7
##  3 bird          6
##  4 voices        5
##  5 attention     4
##  6 day           4
##  7 hope          4
##  8 life          4
##  9 makes         4
## 10 muscles       4
## # ... with 512 more rows
## [1] "Atomic Habits: An Easy and Proven Way to Build Good Habits and Break Bad Ones"
## # A tibble: 2,736 x 2
## # Groups:   word [2,736]
##    word         n
##    <chr>    <int>
##  1 habits     140
##  2 habit      110
##  3 behavior    94
##  4 change      73
##  5 people      50
##  6 time        47
##  7 identity    38
##  8 day         36
##  9 brain       32
## 10 person      32
## # ... with 2,726 more rows
## [1] "Storynomics: Story-Driven Marketing in the Post-Advertising World"
## # A tibble: 3,042 x 2
## # Groups:   word [3,042]
##    word          n
##    <chr>     <int>
##  1 story       149
##  2 mind         50
##  3 stories      48
##  4 core         47
##  5 marketing    46
##  6 brand        45
##  7 life         42
##  8 change       41
##  9 audience     35
## 10 due          33
## # ... with 3,032 more rows
## [1] "Crucial Conversations Tools for Talking When Stakes Are High, Second Edition"
## # A tibble: 1,828 x 2
## # Groups:   word [1,828]
##    word              n
##    <chr>         <int>
##  1 people           84
##  2 dialogue         40
##  3 stories          40
##  4 due              34
##  5 feel             33
##  6 crucial          31
##  7 conversations    30
##  8 meaning          30
##  9 story            30
## 10 conversation     28
## # ... with 1,818 more rows
## [1] "Pre-Suasion: A Revolutionary Way to Influence and Persuade"
## # A tibble: 524 x 2
## # Groups:   word [524]
##    word             n
##    <chr>        <int>
##  1 attention        6
##  2 influence        5
##  3 mental           5
##  4 trust            5
##  5 visitors         5
##  6 comfort          4
##  7 emotional        4
##  8 experience       4
##  9 message          4
## 10 associations     3
## # ... with 514 more rows
## [1] "Made to Stick: Why some ideas take hold and others come unstuck"
## # A tibble: 1,752 x 2
## # Groups:   word [1,752]
##    word          n
##    <chr>     <int>
##  1 people       64
##  2 knowledge    27
##  3 story        25
##  4 ideas        24
##  5 concrete     18
##  6 surprise     17
##  7 care         16
##  8 time         15
##  9 attention    14
## 10 core         14
## # ... with 1,742 more rows
## [1] "The Charisma Myth: Master the Art of Personal Magnetism"
## # A tibble: 1,802 x 2
## # Groups:   word [1,802]
##    word            n
##    <chr>       <int>
##  1 feel           43
##  2 body           38
##  3 people         35
##  4 language       33
##  5 charisma       27
##  6 warmth         27
##  7 charismatic    24
##  8 power          22
##  9 person         19
## 10 confidence     18
## # ... with 1,792 more rows
## [1] "The Power of Moments: Why Certain Experiences Have Extraordinary Impact"
## # A tibble: 1,299 x 2
## # Groups:   word [1,299]
##    word              n
##    <chr>         <int>
##  1 moments          29
##  2 moment           21
##  3 people           17
##  4 time             15
##  5 insight          13
##  6 milestones       13
##  7 purpose          11
##  8 relationships    11
##  9 create            9
## 10 goal              9
## # ... with 1,289 more rows
## [1] "Principles: Life and Work"
## # A tibble: 1,131 x 2
## # Groups:   word [1,131]
##    word           n
##    <chr>      <int>
##  1 people        54
##  2 thinking      16
##  3 decision      12
##  4 level         12
##  5 life          12
##  6 pain          12
##  7 habits        11
##  8 understand    11
##  9 change        10
## 10 knowing       10
## # ... with 1,121 more rows
## [1] "Deep Work: Rules for Focused Success in a Distracted World"
## # A tibble: 711 x 2
## # Groups:   word [711]
##    word          n
##    <chr>     <int>
##  1 attention    12
##  2 deep         11
##  3 ability       9
##  4 book          9
##  5 life          9
##  6 time          9
##  7 mind          7
##  8 world         7
##  9 focus         6
## 10 called        5
## # ... with 701 more rows
## [1] "Getting to Yes: Negotiating an agreement without giving in"
## # A tibble: 1,489 x 2
## # Groups:   word [1,489]
##    word            n
##    <chr>       <int>
##  1 agreement      33
##  2 negotiation    33
##  3 options        23
##  4 people         19
##  5 objective      17
##  6 positions      17
##  7 ideas          16
##  8 position       15
##  9 shared         15
## 10 solution       15
## # ... with 1,479 more rows
## [1] "Who: The A Method for Hiring"
## # A tibble: 920 x 2
## # Groups:   word [920]
##    word           n
##    <chr>      <int>
##  1 people        38
##  2 job           22
##  3 players       16
##  4 person        15
##  5 candidate     14
##  6 candidates    13
##  7 company       13
##  8 hire          11
##  9 hiring        11
## 10 interview     11
## # ... with 910 more rows
## [1] "Mindset: Changing The Way You think To Fulfil Your Potential"
## # A tibble: 910 x 2
## # Groups:   word [910]
##    word         n
##    <chr>    <int>
##  1 mindset     43
##  2 people      33
##  3 growth      27
##  4 fixed       23
##  5 blame       18
##  6 learning    16
##  7 learn       15
##  8 effort      11
##  9 failure     11
## 10 makes       10
## # ... with 900 more rows
## [1] "The 4-Hour Work Week: Escape the 9-5, Live Anywhere and Join the New Rich"
## # A tibble: 736 x 2
## # Groups:   word [736]
##    word          n
##    <chr>     <int>
##  1 time         11
##  2 life         10
##  3 mail          6
##  4 product       6
##  5 week          6
##  6 world         6
##  7 baby          5
##  8 celebrity     5
##  9 create        5
## 10 days          5
## # ... with 726 more rows
## [1] "Tools of Titans: The Tactics, Routines, and Habits of Billionaires, Icons, and World-Class Performers"
## # A tibble: 1,956 x 2
## # Groups:   word [1,956]
##    word       n
##    <chr>  <int>
##  1 people    41
##  2 life      25
##  3 time      24
##  4 write     24
##  5 world     22
##  6 10        17
##  7 ideas     14
##  8 book      13
##  9 times     12
## 10 read      11
## # ... with 1,946 more rows
## [1] "The Elements of Eloquence: How to Turn the Perfect English Phrase"
## # A tibble: 116 x 2
## # Groups:   word [116]
##    word           n
##    <chr>      <int>
##  1 change         5
##  2 english        3
##  3 pattern        3
##  4 poets          3
##  5 19             2
##  6 44             2
##  7 attitude       2
##  8 colour         2
##  9 contradict     2
## 10 fall           2
## # ... with 106 more rows
## [1] "The One Thing: The Surprisingly Simple Truth Behind Extraordinary Results: Achieve your goals with one of the world's bestselling success books (Basic Skills)"
## # A tibble: 587 x 2
## # Groups:   word [587]
##    word              n
##    <chr>         <int>
##  1 time             29
##  2 success          15
##  3 results          11
##  4 block             9
##  5 day               9
##  6 extraordinary     9
##  7 life              8
##  8 matters           8
##  9 successful        8
## 10 discipline        7
## # ... with 577 more rows
## [1] "How to Win Friends and Influence People"
## # A tibble: 140 x 2
## # Groups:   word [140]
##    word          n
##    <chr>     <int>
##  1 people        7
##  2 ability       3
##  3 fears         3
##  4 116           2
##  5 book          2
##  6 human         2
##  7 knowledge     2
##  8 meeting       2
##  9 person's      2
## 10 sell          2
## # ... with 130 more rows
## [1] "The Untethered Soul: The Journey Beyond Yourself"
## # A tibble: 770 x 2
## # Groups:   word [770]
##    word           n
##    <chr>      <int>
##  1 life          73
##  2 feel          34
##  3 events        26
##  4 mind          25
##  5 world         20
##  6 fear          19
##  7 inside        19
##  8 energy        17
##  9 experience    17
## 10 heart         17
## # ... with 760 more rows
## [1] "Man's Search For Meaning: The classic tribute to hope from the Holocaust"
## # A tibble: 894 x 2
## # Groups:   word [894]
##    word            n
##    <chr>       <int>
##  1 life           29
##  2 suffering      24
##  3 meaning        20
##  4 human          19
##  5 intention      11
##  6 75              9
##  7 logotherapy     9
##  8 patient         9
##  9 world           9
## 10 called          8
## # ... with 884 more rows
## [1] "The Power of your Subconscious Mind and Other Works"
## # A tibble: 600 x 2
## # Groups:   word [600]
##    word             n
##    <chr>        <int>
##  1 mind            34
##  2 subconscious    28
##  3 wealth          13
##  4 idea            11
##  5 mental          10
##  6 love             9
##  7 life             8
##  8 peace            8
##  9 happiness        7
## 10 desire           6
## # ... with 590 more rows
## [1] "Ego is the Enemy: The Fight to Master Our Greatest Opponent"
## # A tibble: 831 x 2
## # Groups:   word [831]
##    word         n
##    <chr>    <int>
##  1 ego         19
##  2 people      12
##  3 purpose     11
##  4 111          8
##  5 change       7
##  6 147          6
##  7 function     6
##  8 life         6
##  9 passion      6
## 10 path         6
## # ... with 821 more rows
## [1] "Outliers: The Story of Success"
## # A tibble: 105 x 2
## # Groups:   word [105]
##    word             n
##    <chr>        <int>
##  1 ability          3
##  2 knowing          3
##  3 sense            3
##  4 communicate      2
##  5 distance         2
##  6 family           2
##  7 intelligence     2
##  8 power            2
##  9 practical        2
## 10 sternberg        2
## # ... with 95 more rows
## [1] "The Start-up of You: Adapt to the Future, Invest in Yourself, and Transform Your Career"
## # A tibble: 570 x 2
## # Groups:   word [570]
##    word              n
##    <chr>         <int>
##  1 people           14
##  2 product           8
##  3 opportunities     7
##  4 person            7
##  5 start             7
##  6 assets            6
##  7 job               6
##  8 time              6
##  9 138               5
## 10 create            5
## # ... with 560 more rows
…
for (i in 1:28){
  print(book_names[i])
df_bigram[[i]] %>% 
  group_by(bigram) %>% 
  count() %>% 
  arrange(desc(n))%>% 
  print(n=10)
  
}

## [1] "Thinking, Fast and Slow"
## # A tibble: 5,768 x 2
## # Groups:   bigram [5,768]
##    bigram                    n
##    <chr>                 <int>
##  1 system 1                 16
##  2 cognitive ease            9
##  3 system 2                  8
##  4 halo effect               4
##  5 loss aversion             4
##  6 possibility effect        4
##  7 affective forecasting     3
##  8 availability bias         3
##  9 cognitive strain          3
## 10 decision weights          3
## # ... with 5,758 more rows
## [1] "Influence: The Psychology of Persuasion (Collins Business Essentials)"
## # A tibble: 673 x 2
## # Groups:   bigram [673]
##    bigram                    n
##    <chr>                 <int>
##  1 association principle     2
##  2 click whirr               2
##  3 click whirr response      2
##  4 luncheon technique        2
##  5 reciprocity rule          2
##  6 whirr response            2
##  7 0 13                      1
##  8 0 13 rule                 1
##  9 13 rule                   1
## 10 13 rule reciprocation     1
## # ... with 663 more rows
## [1] "On Writing Well, 30th Anniversary Edition: An Informal Guide to Writing Nonfiction"
## # A tibble: 2,172 x 2
## # Groups:   bigram [2,172]
##    bigram                       n
##    <chr>                    <int>
##  1 500th appendix               2
##  2 choice unity                 2
##  3 confronted solved            2
##  4 despair finding              2
##  5 despair finding solution     2
##  6 english language             2
##  7 federal buildings            2
##  8 finally solve                2
##  9 finally solve surgeon        2
## 10 finding solution             2
## # ... with 2,162 more rows
## [1] "Wired for Story: The Writer's Guide to Using Brain Science to Hook Readers from the Very First Sentence"
## # A tibble: 6,602 x 2
## # Groups:   bigram [6,602]
##    bigram                    n
##    <chr>                 <int>
##  1 external goal             8
##  2 internal goal             6
##  3 cognitive unconscious     5
##  4 internal issue            5
##  5 real life                 5
##  6 story question            5
##  7 antonio damasio           4
##  8 effect trajectory         4
##  9 steven pinker             4
## 10 1 story                   3
## # ... with 6,592 more rows
## [1] "Bird by Bird: Some Instructions on Writing and Life"
## # A tibble: 1,304 x 2
## # Groups:   bigram [1,304]
##    bigram                   n
##    <chr>                <int>
##  1 bird bird                3
##  2 muscles cramp            3
##  3 cramp wounds             2
##  4 life view                2
##  5 likable narrator         2
##  6 muscles cramp wounds     2
##  7 pay attention            2
##  8 1,015 read               1
##  9 1,015 read reading       1
## 10 1,048 digress            1
## # ... with 1,294 more rows
## [1] "Atomic Habits: An Easy and Proven Way to Build Good Habits and Break Bad Ones"
…
##    bigram                 n
##    <chr>              <int>
##  1 object desire         16
##  2 told story            16
##  3 inciting incident     12
##  4 positive negative     10
##  5 purpose told          10
##  6 subject matter        10
##  7 core character         9
##  8 purpose told story     8
##  9 real beauty            7
## 10 change team's          6
## # ... with 1.281e+04 more rows
## [1] "Crucial Conversations Tools for Talking When Stakes Are High, Second Edition"
## # A tibble: 8,751 x 2
## # Groups:   bigram [8,751]
##    bigram                    n
##    <chr>                 <int>
##  1 crucial conversations    19
##  2 due 27                   10
##  3 mutual purpose           10
##  4 shared pool               8
##  5 silence violence          8
##  6 crucial conversation      7
##  7 path action               7
##  8 due 26                    6
##  9 due 43                    6
## 10 fool's choice             6
## # ... with 8,741 more rows
## [1] "Pre-Suasion: A Revolutionary Way to Influence and Persuade"
## # A tibble: 1,261 x 2
## # Groups:   bigram [1,261]
##    bigram                      n
##    <chr>                   <int>
##  1 attention goal              2
##  2 concept audience            2
##  3 levels importance           2
##  4 mandel johnson              2
##  5 mental activity             2
##  6 social proof                2
##  7 thousand dollars            2
##  8 twenty thousand             2
##  9 twenty thousand dollars     2
## 10 writing session             2
## # ... with 1,251 more rows
## [1] "Made to Stick: Why some ideas take hold and others come unstuck"
## # A tibble: 6,372 x 2
## # Groups:   bigram [6,372]
##    bigram                      n
##    <chr>                   <int>
##  1 curse knowledge             7
##  2 guessing machines           6
##  3 people care                 6
##  4 goodyear tires              5
##  5 knowledge gaps              5
##  6 people's attention          5
##  7 popcorn popper              5
##  8 security goodyear           5
##  9 security goodyear tires     5
## 10 sinatra test                5
## # ... with 6,362 more rows
## [1] "The Charisma Myth: Master the Art of Personal Magnetism"
## # A tibble: 6,343 x 2
## # Groups:   bigram [6,343]
##    bigram                        n
##    <chr>                     <int>
##  1 body language                30
##  2 power warmth                  6
##  3 feel bad                      4
##  4 imagination reality           4
##  5 people feel                   4
##  6 responsibility transfer       4
##  7 charismatic body              3
##  8 charismatic body language     3
##  9 confidence ability            3
## 10 distinguish imagination       3
## # ... with 6,333 more rows
## [1] "The Power of Moments: Why Certain Experiences Have Extraordinary Impact"
## # A tibble: 3,967 x 2
## # Groups:   bigram [3,967]
##    bigram                         n
##    <chr>                      <int>
##  1 defining moments               5
##  2 backward integrated            3
##  3 backward integrated design     3
##  4 breaking script                3
##  5 connecting meaning             3
##  6 integrated design              3
##  7 moments pride                  3
##  8 understanding validation       3
##  9 bad stronger                   2
## 10 bose headphones                2
## # ... with 3,957 more rows
## [1] "Principles: Life and Work"
…
